%YAML 1.1
%TAG !u! tag:unity3d.com,2011:
--- !u!1001 &5983002314975954419
PrefabInstance:
  m_ObjectHideFlags: 0
  serializedVersion: 2
  m_Modification:
    m_TransformParent: {fileID: 0}
    m_Modifications:
    - target: {fileID: 100218, guid: 3f135c09d9b111a4f8b361b7257a0254, type: 3}
      propertyPath: m_Name
      value: Kevin_FBX Variant
      objectReference: {fileID: 0}
    - target: {fileID: 400218, guid: 3f135c09d9b111a4f8b361b7257a0254, type: 3}
      propertyPath: m_LocalPosition.x
      value: -0.7
      objectReference: {fileID: 0}
    - target: {fileID: 400218, guid: 3f135c09d9b111a4f8b361b7257a0254, type: 3}
      propertyPath: m_LocalPosition.y
      value: 0.364
      objectReference: {fileID: 0}
    - target: {fileID: 400218, guid: 3f135c09d9b111a4f8b361b7257a0254, type: 3}
      propertyPath: m_LocalPosition.z
      value: -0.002
      objectReference: {fileID: 0}
    - target: {fileID: 400218, guid: 3f135c09d9b111a4f8b361b7257a0254, type: 3}
      propertyPath: m_LocalRotation.x
      value: 0
      objectReference: {fileID: 0}
    - target: {fileID: 400218, guid: 3f135c09d9b111a4f8b361b7257a0254, type: 3}
      propertyPath: m_LocalRotation.y
      value: -0.67559016
      objectReference: {fileID: 0}
    - target: {fileID: 400218, guid: 3f135c09d9b111a4f8b361b7257a0254, type: 3}
      propertyPath: m_LocalRotation.z
      value: 0
      objectReference: {fileID: 0}
    - target: {fileID: 400218, guid: 3f135c09d9b111a4f8b361b7257a0254, type: 3}
      propertyPath: m_LocalRotation.w
      value: 0.7372774
      objectReference: {fileID: 0}
    - target: {fileID: 400218, guid: 3f135c09d9b111a4f8b361b7257a0254, type: 3}
      propertyPath: m_RootOrder
      value: 0
      objectReference: {fileID: 0}
    - target: {fileID: 400218, guid: 3f135c09d9b111a4f8b361b7257a0254, type: 3}
      propertyPath: m_LocalEulerAnglesHint.x
      value: 0
      objectReference: {fileID: 0}
    - target: {fileID: 400218, guid: 3f135c09d9b111a4f8b361b7257a0254, type: 3}
      propertyPath: m_LocalEulerAnglesHint.y
      value: -85
      objectReference: {fileID: 0}
    - target: {fileID: 400218, guid: 3f135c09d9b111a4f8b361b7257a0254, type: 3}
      propertyPath: m_LocalEulerAnglesHint.z
      value: 0
      objectReference: {fileID: 0}
    - target: {fileID: 9500000, guid: 3f135c09d9b111a4f8b361b7257a0254, type: 3}
      propertyPath: m_Controller
      value: 
      objectReference: {fileID: 9100000, guid: 48f707ed33fef464992ded01c9b532ac, type: 2}
    - target: {fileID: 9500000, guid: 3f135c09d9b111a4f8b361b7257a0254, type: 3}
      propertyPath: m_UpdateMode
      value: 1
      objectReference: {fileID: 0}
    - target: {fileID: 9500000, guid: 3f135c09d9b111a4f8b361b7257a0254, type: 3}
      propertyPath: m_CullingMode
      value: 0
      objectReference: {fileID: 0}
    - target: {fileID: 9500000, guid: 3f135c09d9b111a4f8b361b7257a0254, type: 3}
      propertyPath: m_ApplyRootMotion
      value: 1
      objectReference: {fileID: 0}
    - target: {fileID: 400168, guid: 3f135c09d9b111a4f8b361b7257a0254, type: 3}
      propertyPath: m_LocalRotation.x
      value: -0.005801835
      objectReference: {fileID: 0}
    - target: {fileID: 400168, guid: 3f135c09d9b111a4f8b361b7257a0254, type: 3}
      propertyPath: m_LocalRotation.z
      value: 0.045986213
      objectReference: {fileID: 0}
    m_RemovedComponents: []
  m_SourcePrefab: {fileID: 100100000, guid: 3f135c09d9b111a4f8b361b7257a0254, type: 3}
