%YAML 1.1
%TAG !u! tag:unity3d.com,2011:
--- !u!1001 &3805773546343284840
PrefabInstance:
  m_ObjectHideFlags: 0
  serializedVersion: 2
  m_Modification:
    m_TransformParent: {fileID: 5416223781859334467}
    m_Modifications:
    - target: {fileID: 100212, guid: 50b043ecf1f3e9645a22899bf215ef95, type: 3}
      propertyPath: m_Name
      value: FBX_7FullAnger_3LowAnger
      objectReference: {fileID: 0}
    - target: {fileID: 400212, guid: 50b043ecf1f3e9645a22899bf215ef95, type: 3}
      propertyPath: m_LocalPosition.x
      value: -3.6104488
      objectReference: {fileID: 0}
    - target: {fileID: 400212, guid: 50b043ecf1f3e9645a22899bf215ef95, type: 3}
      propertyPath: m_LocalPosition.y
      value: -2.3772187
      objectReference: {fileID: 0}
    - target: {fileID: 400212, guid: 50b043ecf1f3e9645a22899bf215ef95, type: 3}
      propertyPath: m_LocalPosition.z
      value: -6.4980187
      objectReference: {fileID: 0}
    - target: {fileID: 400212, guid: 50b043ecf1f3e9645a22899bf215ef95, type: 3}
      propertyPath: m_LocalRotation.x
      value: -0
      objectReference: {fileID: 0}
    - target: {fileID: 400212, guid: 50b043ecf1f3e9645a22899bf215ef95, type: 3}
      propertyPath: m_LocalRotation.y
      value: -0
      objectReference: {fileID: 0}
    - target: {fileID: 400212, guid: 50b043ecf1f3e9645a22899bf215ef95, type: 3}
      propertyPath: m_LocalRotation.z
      value: -0
      objectReference: {fileID: 0}
    - target: {fileID: 400212, guid: 50b043ecf1f3e9645a22899bf215ef95, type: 3}
      propertyPath: m_LocalRotation.w
      value: 1
      objectReference: {fileID: 0}
    - target: {fileID: 400212, guid: 50b043ecf1f3e9645a22899bf215ef95, type: 3}
      propertyPath: m_RootOrder
      value: 10
      objectReference: {fileID: 0}
    - target: {fileID: 400212, guid: 50b043ecf1f3e9645a22899bf215ef95, type: 3}
      propertyPath: m_LocalEulerAnglesHint.x
      value: 0
      objectReference: {fileID: 0}
    - target: {fileID: 400212, guid: 50b043ecf1f3e9645a22899bf215ef95, type: 3}
      propertyPath: m_LocalEulerAnglesHint.y
      value: 0
      objectReference: {fileID: 0}
    - target: {fileID: 400212, guid: 50b043ecf1f3e9645a22899bf215ef95, type: 3}
      propertyPath: m_LocalEulerAnglesHint.z
      value: 0
      objectReference: {fileID: 0}
    m_RemovedComponents: []
  m_SourcePrefab: {fileID: 100100000, guid: 50b043ecf1f3e9645a22899bf215ef95, type: 3}
--- !u!1001 &5416223781858935755
PrefabInstance:
  m_ObjectHideFlags: 0
  serializedVersion: 2
  m_Modification:
    m_TransformParent: {fileID: 0}
    m_Modifications:
    - target: {fileID: 100008, guid: ba9bf4279dd98944a87091effd179019, type: 3}
      propertyPath: m_Name
      value: Rumba Variant
      objectReference: {fileID: 0}
    - target: {fileID: 11100000, guid: ba9bf4279dd98944a87091effd179019, type: 3}
      propertyPath: m_AnimatePhysics
      value: 1
      objectReference: {fileID: 0}
    - target: {fileID: 400008, guid: ba9bf4279dd98944a87091effd179019, type: 3}
      propertyPath: m_LocalPosition.x
      value: 0
      objectReference: {fileID: 0}
    - target: {fileID: 400008, guid: ba9bf4279dd98944a87091effd179019, type: 3}
      propertyPath: m_LocalPosition.y
      value: 0
      objectReference: {fileID: 0}
    - target: {fileID: 400008, guid: ba9bf4279dd98944a87091effd179019, type: 3}
      propertyPath: m_LocalPosition.z
      value: 0
      objectReference: {fileID: 0}
    - target: {fileID: 400008, guid: ba9bf4279dd98944a87091effd179019, type: 3}
      propertyPath: m_LocalRotation.x
      value: 0
      objectReference: {fileID: 0}
    - target: {fileID: 400008, guid: ba9bf4279dd98944a87091effd179019, type: 3}
      propertyPath: m_LocalRotation.y
      value: 0
      objectReference: {fileID: 0}
    - target: {fileID: 400008, guid: ba9bf4279dd98944a87091effd179019, type: 3}
      propertyPath: m_LocalRotation.z
      value: 0
      objectReference: {fileID: 0}
    - target: {fileID: 400008, guid: ba9bf4279dd98944a87091effd179019, type: 3}
      propertyPath: m_LocalRotation.w
      value: 1
      objectReference: {fileID: 0}
    - target: {fileID: 400008, guid: ba9bf4279dd98944a87091effd179019, type: 3}
      propertyPath: m_RootOrder
      value: 0
      objectReference: {fileID: 0}
    - target: {fileID: 400008, guid: ba9bf4279dd98944a87091effd179019, type: 3}
      propertyPath: m_LocalEulerAnglesHint.x
      value: 0
      objectReference: {fileID: 0}
    - target: {fileID: 400008, guid: ba9bf4279dd98944a87091effd179019, type: 3}
      propertyPath: m_LocalEulerAnglesHint.y
      value: 0
      objectReference: {fileID: 0}
    - target: {fileID: 400008, guid: ba9bf4279dd98944a87091effd179019, type: 3}
      propertyPath: m_LocalEulerAnglesHint.z
      value: 0
      objectReference: {fileID: 0}
    - target: {fileID: 9500000, guid: ba9bf4279dd98944a87091effd179019, type: 3}
      propertyPath: m_ApplyRootMotion
      value: 1
      objectReference: {fileID: 0}
    m_RemovedComponents: []
  m_SourcePrefab: {fileID: 100100000, guid: ba9bf4279dd98944a87091effd179019, type: 3}
--- !u!4 &5416223781859334467 stripped
Transform:
  m_CorrespondingSourceObject: {fileID: 400008, guid: ba9bf4279dd98944a87091effd179019,
    type: 3}
  m_PrefabInstance: {fileID: 5416223781858935755}
  m_PrefabAsset: {fileID: 0}
